<?xml version="1.0" encoding="UTF-8" standalone="no"?>
<svg
   xmlns:dc="http://purl.org/dc/elements/1.1/"
   xmlns:cc="http://creativecommons.org/ns#"
   xmlns:rdf="http://www.w3.org/1999/02/22-rdf-syntax-ns#"
   xmlns:svg="http://www.w3.org/2000/svg"
   xmlns="http://www.w3.org/2000/svg"
   xmlns:sodipodi="http://sodipodi.sourceforge.net/DTD/sodipodi-0.dtd"
   xmlns:inkscape="http://www.inkscape.org/namespaces/inkscape"
   sodipodi:docname="Progress Bar Over.svg"
   inkscape:version="1.0 (4035a4fb49, 2020-05-01)"
   id="svg8"
   version="1.1"
   viewBox="0 0 67.733334 67.733334"
   height="256"
   width="256">
  <defs
     id="defs2" />
  <sodipodi:namedview
     inkscape:window-maximized="1"
     inkscape:window-y="0"
     inkscape:window-x="0"
     inkscape:window-height="1135"
     inkscape:window-width="1920"
     showgrid="false"
     inkscape:document-rotation="0"
     inkscape:current-layer="layer1"
     inkscape:document-units="px"
     inkscape:cy="93.136079"
     inkscape:cx="151.28232"
     inkscape:zoom="3.2320146"
     inkscape:pageshadow="2"
     inkscape:pageopacity="0.0"
     borderopacity="1.0"
     bordercolor="#666666"
     pagecolor="#ffffff"
     id="base"
     fit-margin-top="0"
     fit-margin-left="0"
     fit-margin-right="0"
     fit-margin-bottom="0"
     units="px" />
  <metadata
     id="metadata5">
    <rdf:RDF>
      <cc:Work
         rdf:about="">
        <dc:format>image/svg+xml</dc:format>
        <dc:type
           rdf:resource="http://purl.org/dc/dcmitype/StillImage" />
        <dc:title></dc:title>
      </cc:Work>
    </rdf:RDF>
  </metadata>
  <g
     id="layer1"
     inkscape:groupmode="layer"
     inkscape:label="Layer 1">
    <path
       transform="scale(0.26458334)"
       d="M 127.67578 0 A 127.99999 127.99999 0 0 0 0 128 A 127.99999 127.99999 0 0 0 128 256 A 127.99999 127.99999 0 0 0 256 128 A 127.99999 127.99999 0 0 0 128 0 A 127.99999 127.99999 0 0 0 127.67578 0 z M 128 6.4003906 A 121.59999 121.59999 0 0 1 249.59961 128 A 121.59999 121.59999 0 0 1 128 249.59961 A 121.59999 121.59999 0 0 1 6.4003906 128 A 121.59999 121.59999 0 0 1 128 6.4003906 z M 127.97461 25.599609 A 102.4 102.4 0 0 0 25.599609 128 A 102.4 102.4 0 0 0 128 230.40039 A 102.4 102.4 0 0 0 230.40039 128 A 102.4 102.4 0 0 0 128 25.599609 A 102.4 102.4 0 0 0 127.97656 25.599609 A 102.4 102.4 0 0 1 127.97461 25.599609 z M 127.97852 32 A 95.999992 95.999992 0 0 1 128 32 A 95.999992 95.999992 0 0 1 224 128 A 95.999992 95.999992 0 0 1 128 224 A 95.999992 95.999992 0 0 1 32 128 A 95.999992 95.999992 0 0 1 127.97852 32 z "
       style="fill:#ffffff;fill-opacity:1;stroke:none;stroke-width:2.26391"
       id="path833" />
  </g>
</svg>
