[gd_scene load_steps=2 format=2]

[ext_resource path="res://Guard.gd" type="Script" id=1]

[node name="Guard" type="Label"]
margin_right = 12.0
margin_bottom = 14.0
text = "ZzZ..."
align = 1
script = ExtResource( 1 )
