[gd_scene format=2]

[node name="GameOverScreen" type="Panel"]
anchor_right = 1.0
anchor_bottom = 1.0
__meta__ = {
"_edit_use_anchors_": false
}

[node name="Label" type="Label" parent="."]
anchor_top = 0.5
anchor_right = 1.0
anchor_bottom = 0.5
margin_top = -7.0
margin_bottom = 7.0
text = "Game Over
Final score:"
align = 1
valign = 1
__meta__ = {
"_edit_use_anchors_": false
}

[node name="Score" type="Label" parent="."]
anchor_top = 0.5
anchor_right = 1.0
anchor_bottom = 0.5
margin_top = 28.0
margin_bottom = 42.0
align = 1
valign = 1
__meta__ = {
"_edit_use_anchors_": false
}
