[gd_scene load_steps=2 format=2]

[ext_resource path="res://Main.gd" type="Script" id=1]

[node name="Panel" type="Panel"]
margin_right = 891.0
margin_bottom = 520.0
script = ExtResource( 1 )

[node name="HBoxContainer" type="HBoxContainer" parent="."]
margin_left = 51.0
margin_top = 20.0
margin_right = 206.0
margin_bottom = 108.0
__meta__ = {
"_edit_group_": true
}

[node name="VBoxContainer" type="VBoxContainer" parent="HBoxContainer"]
margin_right = 102.0
margin_bottom = 88.0

[node name="FirstNumber" type="VBoxContainer" parent="HBoxContainer/VBoxContainer"]
margin_right = 102.0
margin_bottom = 42.0

[node name="Label" type="Label" parent="HBoxContainer/VBoxContainer/FirstNumber"]
margin_right = 102.0
margin_bottom = 14.0
text = "First Number"
align = 1

[node name="Input" type="LineEdit" parent="HBoxContainer/VBoxContainer/FirstNumber"]
margin_top = 18.0
margin_right = 102.0
margin_bottom = 42.0

[node name="SecondNumber" type="VBoxContainer" parent="HBoxContainer/VBoxContainer"]
margin_top = 46.0
margin_right = 102.0
margin_bottom = 88.0

[node name="Label" type="Label" parent="HBoxContainer/VBoxContainer/SecondNumber"]
margin_right = 102.0
margin_bottom = 14.0
text = "Second Number"
align = 1

[node name="Input" type="LineEdit" parent="HBoxContainer/VBoxContainer/SecondNumber"]
margin_top = 18.0
margin_right = 102.0
margin_bottom = 42.0

[node name="Button" type="Button" parent="HBoxContainer"]
margin_left = 106.0
margin_right = 155.0
margin_bottom = 88.0
text = "More!"

[node name="Sequence" type="Label" parent="."]
anchor_top = 1.0
anchor_right = 1.0
anchor_bottom = 1.0
margin_top = -387.0
align = 1
valign = 1
autowrap = true

[node name="GoldenRatio" type="Label" parent="."]
anchor_top = 0.5
anchor_right = 1.0
anchor_bottom = 0.5
margin_left = 218.0
margin_top = -240.0
margin_right = -41.0
margin_bottom = -151.0
